…
write_csv(mentions_with_topics, "topics.csv")

```

### Outcomes

You can modify what columns you'd like kept in your CSV file by modifying the `select` line. 
And this is what some of the data looks like:

```{r}
#> # A tibble: 2,475 x 3
#>    id          topic.id name                                              
#>    <chr>          <int> <chr>                                             
#>  1 46334-8933…    70331 Comparing (brands to brands) or comparing (brands…
#>  2 46334-8933…    69873 Ethics or reputation                              
#>  3 46334-8933…    71303 Transport experience                              
#>  4 46334-8933…    71359 Drivers                                           
#>  5 46334-8933…    69878 Accusations of unethical behavior                 
#>  6 46334-8933…    69873 Ethics or reputation                              
#>  7 46334-8933…    70331 Comparing (brands to brands) or comparing (brands…
#>  8 46334-8933…    69873 Ethics or reputation                              
#>  9 46334-8933…    70331 Comparing (brands to brands) or comparing (brands…
#> 10 46334-8933…    69873 Ethics or reputation                              
#> # ... with 2,465 more rows
```
…
