Filtering • brandseyer2
…
Location

Filtering by continents and large geographic regions.

Filtering by country

Filtering by country region / province / state.

Filtering by city

We use two letter SO 3166-1 Alpha 2 country codes to represent the countries themselves. You can list them using data_model_countries()

data_model_countries()
#> # A tibble: 252 x 2
#>    id    name               
#>    <chr> <chr>              
#>  1 AF    Afghanistan        
#>  2 AX    Aland Islands      
#>  3 AL    Albania            
#>  4 DZ    Algeria            
#>  5 AS    American Samoa     
#>  6 AD    Andorra            
#>  7 AO    Angola             
#>  8 AI    Anguilla           
#>  9 AQ    Antarctica         
#> 10 AG    Antigua and Barbuda
#> # ... with 242 more rows
…
Gender

Joining together statements revisted

Now that we have more statements, we can give more examples.

Precedence.

Bracketing.

We use 2-letter ISO 639-1 codes to represent languages. You can list all the ones we understand using data_model_languages():

data_model_languages()
#> # A tibble: 149 x 2
#>    id    name     
#>    <chr> <chr>    
#>  1 ab    Abkhazian
#>  2 aa    Afar     
#>  3 af    Afrikaans
#>  4 sq    Albanian 
#>  5 am    Amharic  
#>  6 ar    Arabic   
#>  7 an    Aragonese
#>  8 hy    Armenian 
#>  9 as    Assamese 
#> 10 ay    Aymara   
#> # ... with 139 more rows
…
